@RELATION Data

@ATTRIBUTE PlaceOfRetrieval NUMERIC
@ATTRIBUTE Handedness {NUMERIC}
@ATTRIBUTE Sex {M,F}
@ATTRIBUTE Age NUMERIC
@ATTRIBUTE VIQ NUMERIC
@ATTRIBUTE PIQ NUMERIC
@ATTRIBUTE FIQ NUMERIC
@ATTRIBUTE class {Autism,Control}
@DATA

17, 48, M, 18.280600, 127, 122, 131.000000, Control
17, 49, M, 18.737900, 98, 103, 100.000000, Control
17, 48, M, 18.261500, 88, 99, 93.000000, Control
17, 48, M, 16.104000, 98, 102, 100.000000, Control
17, 48, M, 13.809700, 120, 125, 126.000000, Control
17, 48, M, 14.943200, 139, 127, 138.000000, Control
17, 48, M, 15.025300, 87, 108, 97.000000, Control
17, 48, M, 22.601000, 130, 121, 128.000000, Control
17, 48, M, 23.948000, 104, 90, 98.000000, Control
17, 48, M, 27.597500, 118, 121, 123.000000, Control
17, 48, M, 26.852800, 128, 119, 127.000000, Control
17, 48, M, 17.070500, 99, 122, 120.000000, Control
17, 48, M, 24.988400, 106, 92, 100.000000, Control
17, 48, M, 18.138300, 126, 125, 128.000000, Control
17, 48, M, 27.323800, 118, 111, 116.000000, Control
17, 48, M, 12.939100, 132, 121, 130.000000, Control
17, 48, M, 10.466800, 140, 138, 144.000000, Control
17, 48, M, 18.217700, 104, 111, 108.000000, Control
17, 48, M, 21.097900, 98, 100, 95.000000, Control
17, 48, M, 12.525700, 106, 111, 109.000000, Control
17, 48, M, 29.968500, 108, 114, 112.000000, Control
17, 48, M, 8.772100, 104, 137, 121.000000, Control
17, 48, M, 18.800800, 108, 112, 111.000000, Control
17, 48, M, 31.282700, 111, 109, 112.000000, Control
17, 49, M, 16.098600, 104, 115, 109.000000, Control
17, 48, M, 34.053400, 123, 119, 123.000000, Control
17, 48, M, 26.146500, 137, 155, 148.000000, Control
17, 48, M, 18.154700, 106, 115, 111.000000, Control
17, 48, M, 14.412000, 115, 101, 109.000000, Control
17, 48, M, 16.394300, 105, 120, 113.000000, Control
17, 48, M, 24.654300, 121, 114, 120.000000, Control
17, 48, M, 28.366900, 124, 113, 121.000000, Control
17, 48, M, 9.954800, 106, 131, 119.000000, Control
17, 48, M, 34.006800, 123, 129, 129.000000, Control
17, 48, M, 39.252600, 101, 106, 103.000000, Control
17, 48, M, 19.759100, 89, 90, 89.000000, Control
17, 48, M, 39.394900, 127, 111, 122.000000, Control
17, 48, M, 28.561300, 130, 130, 134.000000, Control
17, 48, M, 9.916500, 119, 90, 106.000000, Control
17, 48, M, 25.015700, 106, 107, 108.000000, Control
17, 48, M, 22.108100, 98, 111, 104.000000, Control
17, 48, M, 22.436700, 110, 100, 106.000000, Control
17, 48, M, 22.047900, 112, 107, 110.000000, Control
17, 48, M, 21.648200, 118, 111, 117.000000, Autism
17, 48, M, 20.169700, 109, 103, 108.000000, Autism
17, 48, M, 20.180700, 95, 91, 92.000000, Autism
17, 48, M, 20.178000, 103, 83, 91.000000, Autism
17, 48, M, 22.880200, 108, 116, 113.000000, Autism
17, 48, M, 29.089700, 117, 132, 127.000000, Autism
17, 48, M, 17.166300, 85, 95, 88.000000, Autism
17, 48, M, 27.411400, 94, 92, 94.000000, Autism
17, 48, M, 21.434600, 76, 120, 96.000000, Autism
17, 48, M, 19.704300, 95, 109, 102.000000, Autism
17, 48, M, 23.594800, 122, 133, 132.000000, Autism
17, 48, M, 17.787800, 77, 120, 97.000000, Autism
17, 48, M, 25.797200, 77, 99, 86.000000, Autism
17, 48, M, 25.451100, 83, 120, 100.000000, Autism
17, 49, M, 16.758400, 72, 124, 94.000000, Autism
17, 48, M, 19.627700, 100, 119, 110.000000, Autism
17, 48, M, 26.948700, 122, 120, 125.000000, Autism
17, 48, M, 32.550300, 130, 117, 126.000000, Autism
17, 49, M, 35.709800, 98, 106, 102.000000, Autism
17, 48, M, 37.776900, 55, 76, 65.000000, Autism
17, 49, M, 22.559900, 86, 96, 88.000000, Autism
17, 48, M, 24.323100, 120, 132, 129.000000, Autism
17, 48, M, 34.461300, 76, 89, 80.000000, Autism
17, 48, M, 21.130700, 118, 87, 99.000000, Autism
17, 48, M, 25.434600, 121, 104, 113.000000, Autism
17, 48, M, 17.237500, 113, 119, 118.000000, Autism
17, 48, M, 17.705700, 79, 80, 78.000000, Autism
17, 48, M, 32.958200, 101, 83, 90.000000, Autism
17, 48, M, 28.670800, 91, 72, 80.000000, Autism
17, 48, M, 17.645400, 86, 92, 87.000000, Autism
17, 48, M, 33.182800, 86, 106, 95.000000, Autism
17, 48, M, 15.934300, 77, 74, 73.000000, Autism
17, 48, M, 28.109500, 108, 87, 97.000000, Autism
17, 48, M, 26.379200, 96, 118, 107.000000, Autism
17, 48, M, 16.733700, 85, 107, 95.000000, Autism
17, 48, M, 14.143700, 104, 99, 102.000000, Autism
17, 48, M, 16.383300, 109, 116, 114.000000, Autism
17, 48, M, 15.490800, 108, 131, 121.000000, Autism
17, 48, M, 21.401800, 99, 119, 109.000000, Autism
17, 48, M, 15.852200, 71, 106, 94.000000, Autism
17, 48, M, 17.114300, 108, 104, 107.000000, Autism
17, 49, M, 16.501000, 108, 107, 109.000000, Autism
17, 49, M, 18.658500, 83, 75, 77.000000, Autism
17, 48, M, 16.377800, 78, 90, 83.000000, Autism
17, 48, M, 17.672800, 55, 101, 76.000000, Autism
17, 48, M, 18.417500, 69, 99, 80.000000, Autism
17, 48, M, 14.751500, 93, 108, 100.000000, Autism
17, 48, M, 17.325100, 118, 109, 115.000000, Autism
17, 48, M, 12.334000, 76, 93, 83.000000, Autism
17, 48, M, 32.848700, 87, 128, 106.000000, Autism
17, 48, M, 50.223100, 118, 121, 123.000000, Autism
17, 48, M, 18.414800, 84, 105, 93.000000, Autism
17, 48, M, 11.353900, 90, 109, 100.000000, Autism
17, 48, M, 42.335400, 122, 127, 128.000000, Autism
17, 49, M, 18.245000, 120, 91, 106.000000, Autism
17, 48, M, 16.919900, 87, 81, 84.000000, Autism
